[gd_resource type="ParticlesMaterial" format=2]

[resource]
flag_disable_z = true
spread = 180.0
gravity = Vector3( 0, 0, 0 )
initial_velocity = 69.96
initial_velocity_random = 0.59
angular_velocity = 1.0
orbit_velocity = 0.0
orbit_velocity_random = 0.0
damping = 20.7
scale = 2.0
