[gd_scene load_steps=4 format=2]

[ext_resource path="res://scenes/Elements/BasicGate/BasicGate.gd" type="Script" id=1]
[ext_resource path="res://scenes/Cones/StandingCone/StandingCone.tscn" type="PackedScene" id=2]
[ext_resource path="res://assets/arrow.png" type="Texture" id=3]

[node name="BasicGate" type="Node2D"]
script = ExtResource( 1 )

[node name="LeftCone" parent="." instance=ExtResource( 2 )]
position = Vector2( -100, 0 )
clear_dist = 100.0

[node name="RightCone" parent="." instance=ExtResource( 2 )]
position = Vector2( 100, 0 )
rotation = 3.14159
clear_dist = 100.0

[node name="DirArrow" type="Sprite" parent="."]
rotation = 1.57079
texture = ExtResource( 3 )
