[gd_scene load_steps=5 format=2]

[ext_resource path="res://icon.png" type="Texture" id=1]
[ext_resource path="res://arcade/input/ArcadeInput.tscn" type="PackedScene" id=2]

[sub_resource type="GDScript" id=1]
script/source = "extends KinematicBody2D

export var isPlayer1 = false

signal hit

const SPEED_SCALE = 2

# units: pixels/second
const WALK_SPEED = 110
# units: pixels/second
const CLIMB_SPEED = 100
const GRAVITY = Vector2(0,4000)
const FLOOR_NORMAL = Vector2(0,-1)

enum Location{eFloor,eWall,eAir}

var prevLoc = Location.eAir
var spawnPosition = Vector2()
var v = Vector2()
var stopped = false
# prevents someone from controlling player 2 while AI is playing
var disableUserInput = false
var nextDir = \"null\"
var currDir = \"null\"

func _ready():
	$ArcadeInput.isPlayer1 = isPlayer1
	spawnPosition = global_position
	
	add_to_group(\"player_body\")
	respawn()
	
func setDisableUserInput(disabled):
	disableUserInput = disabled
	
func respawn():
	global_position = spawnPosition
	v = Vector2()
	nextDir = \"u\"
	currDir = \"null\"
	rotation = 0 + _getPerspectiveRotation()
	stopped = true
	
func isPlayer1():
	return isPlayer1
	
func setStopped(stopped):
	self.stopped = stopped

func explode():
	($fill).visible = false
	($Particles2D).emitting = true
	stopped = true
	
func turnLeft():
	# map used to convert absolute dir needed to turn left
	var DIR_MAP = {
		\"u\":\"l\",
		\"l\":\"d\",
		\"d\":\"r\",
		\"r\":\"u\"}
		
	giveInput(DIR_MAP[currDir])

func turnRight():
	# map used to convert absolute dir needed to turn right
	var DIR_MAP = {
		\"u\":\"r\",
		\"l\":\"u\",
		\"d\":\"l\",
		\"r\":\"d\"}
		
	giveInput(DIR_MAP[currDir])

func giveInput(dir):
	if dir == \"l\" and not (currDir in [\"l\",\"r\"]):
		nextDir = \"l\"
	elif dir == \"r\" and not (currDir in [\"l\",\"r\"]):
		nextDir = \"r\"
	elif dir == \"u\" and not (currDir in [\"u\",\"d\"]):
		nextDir = \"u\"
	elif dir == \"d\" and not (currDir in [\"u\",\"d\"]):
		nextDir = \"d\"
		
func _input(event):
	if disableUserInput:
		# don't handle this event
		return
		
	var isPress = event.is_pressed()
	
	if isPress:
		if event.is_action($ArcadeInput.getActionName(\"l\")):
			giveInput(\"l\")
		elif event.is_action($ArcadeInput.getActionName(\"r\")):
			giveInput(\"r\")
		elif event.is_action($ArcadeInput.getActionName(\"u\")):
			giveInput(\"u\")
		elif event.is_action($ArcadeInput.getActionName(\"d\")):
			giveInput(\"d\")
	
func _getPerspectiveRotation():
	if isPlayer1:
		return 0
	return PI

func getDir():
	return currDir

func _physics_process(delta):
	if not stopped:
		# move and slide
		v = move_and_slide(v,FLOOR_NORMAL)
		
		# handle player rotation
		var normal = FLOOR_NORMAL
		var climbable = false
		var falling = get_slide_count() == 0
		for i in range(get_slide_count()):
			var coll := get_slide_collision(i)
			var collider := coll.collider
			print_debug(collider.name)
			if collider.is_in_group(\"climbable\"):
				climbable = true
				normal = coll.normal
				break
		rotation = normal.angle() + PI / 2
		
		# apply Gravity
		if falling:
			v += GRAVITY * delta
		
		var targetVelocity := Vector2()
		if Input.is_action_pressed($ArcadeInput.getActionName('l')):
			targetVelocity = Vector2(-1,0.5).rotated(rotation) * WALK_SPEED
		elif Input.is_action_pressed($ArcadeInput.getActionName('r')):
			targetVelocity = Vector2(1,0.5).rotated(rotation) * WALK_SPEED
		elif is_on_floor() and Input.is_action_pressed($ArcadeInput.getActionName('b')):
			v.y = -2000
			
		v = lerp(v,targetVelocity,0.2)"

[sub_resource type="RectangleShape2D" id=2]
extents = Vector2( 29.9405, 30 )

[node name="Player" type="KinematicBody2D" groups=[
"player",
]]
collision_layer = 2
collision_mask = 13
script = SubResource( 1 )

[node name="sprite" type="Sprite" parent="."]
texture = ExtResource( 1 )

[node name="body" type="CollisionShape2D" parent="."]
position = Vector2( 0.0595398, 0 )
shape = SubResource( 2 )

[node name="ArcadeInput" parent="." instance=ExtResource( 2 )]
