[gd_scene load_steps=4 format=2]

[ext_resource path="res://arcade/ui/control_panel/start_color/pressed.png" type="Texture" id=1]
[ext_resource path="res://arcade/ui/control_panel/start_color/released.png" type="Texture" id=2]



[sub_resource type="SpriteFrames" id=3]
animations = [ {
"frames": [ ExtResource( 1 ) ],
"loop": true,
"name": "pressed",
"speed": 2.0
}, {
"frames": [ ExtResource( 2 ) ],
"loop": true,
"name": "released",
"speed": 2.0
}, {
"frames": [ ExtResource( 1 ), ExtResource( 2 ), ExtResource( 2 ), ExtResource( 2 ) ],
"loop": true,
"name": "press_and_hold",
"speed": 2.0
}, {
"frames": [ ExtResource( 1 ), ExtResource( 2 ) ],
"loop": true,
"name": "press_release",
"speed": 2.0
}, {
"frames": [ ExtResource( 2 ), ExtResource( 1 ) ],
"loop": true,
"name": "release_press",
"speed": 2.0
} ]

[node name="ColorStartButton" type="AnimatedSprite"]
position = Vector2( 791, 146 )
frames = SubResource( 3 )
animation = "press_release"
playing = true
