[gd_scene load_steps=3 format=2]

[sub_resource type="GDScript" id=1]
script/source = "extends KinematicBody2D

const GRAVITY = 980
const TERMINAL_VELOCITY = 4

var v := Vector2()

func _ready():
	pass # Replace with function body.

func _process(delta):
	v.y += GRAVITY * delta
	v.y = min(v.y,TERMINAL_VELOCITY)
	
	var ci := move_and_collide(v)
	if ci:
		var collider := ci.collider
		var continueProcessing = true
		if collider.is_in_group(\"player\"):
			pass
		elif collider.is_in_group(\"block\"):
			continueProcessing = false
		elif collider.is_in_group(\"wall\"):
			continueProcessing = false
			
		set_process(continueProcessing)"

[sub_resource type="RectangleShape2D" id=2]
extents = Vector2( 25, 30 )

[node name="Block" type="KinematicBody2D" groups=[
"block",
]]
collision_layer = 4
collision_mask = 3
script = SubResource( 1 )

[node name="fill" type="ColorRect" parent="."]
margin_top = -60.0
margin_right = 60.0

[node name="CollisionShape2D" type="CollisionShape2D" parent="."]
position = Vector2( 30, -30 )
shape = SubResource( 2 )

[node name="left" type="StaticBody2D" parent="." groups=[
"climbable",
]]
editor/display_folded = true
collision_layer = 8
collision_mask = 2

[node name="CollisionPolygon2D" type="CollisionPolygon2D" parent="left"]
polygon = PoolVector2Array( 0, 0, 15, -30, 0, -60 )

[node name="right" type="StaticBody2D" parent="." groups=[
"climbable",
]]
editor/display_folded = true
collision_layer = 8
collision_mask = 2

[node name="CollisionPolygon2D" type="CollisionPolygon2D" parent="right"]
polygon = PoolVector2Array( 45, -30, 60, -60, 60, 0 )
