[gd_scene load_steps=2 format=2]

[ext_resource path="res://control_sprites/ControlPanel.tscn" type="PackedScene" id=1]

[node name="Node2D" type="Node2D"]

[node name="ControlPanel" parent="." instance=ExtResource( 1 )]
position = Vector2( 10, 10 )
