[gd_scene load_steps=2 format=2]

[ext_resource path="res://player/Player.gd" type="Script" id=1]

[node name="Player" type="PathFollow2D"]
position = Vector2( 70.0164, 70 )
rotation = 1.90628e-06
offset = 50.0
script = ExtResource( 1 )

[node name="ColorRect" type="ColorRect" parent="."]
margin_left = -4.78468
margin_top = -4.78468
margin_right = 5.21532
margin_bottom = 5.21532

[node name="Heading" type="RayCast2D" parent="."]
position = Vector2( 1.52588e-05, 8 )
enabled = true
cast_to = Vector2( 0, 750 )
