[gd_scene load_steps=2 format=2]

[ext_resource path="res://LoggingDemo.gd" type="Script" id=1]

[node name="LoggingDemo" type="Panel"]
anchor_right = 1.0
anchor_bottom = 1.0
script = ExtResource( 1 )
__meta__ = {
"_edit_use_anchors_": false
}

[node name="Timer" type="Timer" parent="."]
autostart = true

[node name="Button" type="Button" parent="."]
margin_left = 11.6635
margin_top = 15.1626
margin_right = 205.664
margin_bottom = 76.1626
text = "Reset my_int"
[connection signal="timeout" from="Timer" to="." method="_on_Timer_timeout"]
[connection signal="pressed" from="Button" to="." method="_on_Button_pressed"]
