[gd_scene load_steps=4 format=2]

[ext_resource path="res://themes/laser/laser_theme.tres" type="Theme" id=1]

[sub_resource type="GDScript" id=1]
script/source = "extends PanelContainer

onready var roundSlider = $VBoxContainer/rounds/HSlider

export var arcade_mode = true

signal game_start

func _ready():
	setArcadeMode(arcade_mode)

func setArcadeMode(arcadeModeEnabled):
	arcade_mode = arcadeModeEnabled

func _input(event):
	if arcade_mode and visible:
		if event.is_action_released(\"p1_start\"):
			_startGame(false)
		elif event.is_action_released(\"p2_start\"):
			_startGame(true)

func _getGameSettings(isTwoPlayer):
	return roundSlider.value

func _on_start1P_pressed():
	if visible:
		_startGame(false)

func _on_start2P_pressed():
	if visible:
		_startGame(true)
		
func _startGame(is2P: bool):
	var settings = _getGameSettings(is2P)
	emit_signal(\"game_start\",settings)

func _on_VBoxContainer_visibility_changed():
	if arcade_mode:
		# when menu become visible, default to slider focused
		$VBoxContainer/rounds/HSlider.grab_focus()
"

[sub_resource type="GDScript" id=2]
script/source = "extends Label

func _on_HSlider_value_changed(value):
	text = str(value)
"

[node name="Menu" type="PanelContainer"]
margin_left = 120.0
margin_top = 300.0
margin_right = 440.0
margin_bottom = 358.0
size_flags_horizontal = 2
size_flags_vertical = 2
theme = ExtResource( 1 )
script = SubResource( 1 )

[node name="VBoxContainer" type="VBoxContainer" parent="."]
margin_left = 7.0
margin_top = 7.0
margin_right = 313.0
margin_bottom = 51.0
size_flags_horizontal = 3
size_flags_vertical = 3

[node name="rounds" type="HBoxContainer" parent="VBoxContainer"]
margin_right = 306.0
margin_bottom = 44.0

[node name="Label" type="Label" parent="VBoxContainer/rounds"]
margin_right = 127.0
margin_bottom = 44.0
text = "Rounds: "

[node name="indicator" type="Label" parent="VBoxContainer/rounds"]
margin_left = 131.0
margin_right = 168.0
margin_bottom = 44.0
text = "10"
script = SubResource( 2 )

[node name="HSlider" type="HSlider" parent="VBoxContainer/rounds"]
margin_left = 172.0
margin_right = 306.0
margin_bottom = 44.0
size_flags_horizontal = 3
size_flags_vertical = 1
min_value = 1.0
max_value = 10.0
value = 10.0
rounded = true
[connection signal="visibility_changed" from="VBoxContainer" to="." method="_on_VBoxContainer_visibility_changed"]
[connection signal="value_changed" from="VBoxContainer/rounds/HSlider" to="VBoxContainer/rounds/indicator" method="_on_HSlider_value_changed"]
