[gd_scene load_steps=2 format=2]

[ext_resource path="res://control_sprites/panel/panel.png" type="Texture" id=1]

[node name="ColorPanel" type="Sprite"]
position = Vector2( 260.691, 387.448 )
texture = ExtResource( 1 )
