[gd_scene load_steps=4 format=2]

[ext_resource path="res://string/String.gd" type="Script" id=1]

[sub_resource type="GDScript" id=2]
script/source = "extends StaticBody2D

func kill():
	get_parent().kill()
"

[sub_resource type="SegmentShape2D" id=1]
b = Vector2( 110, 0 )

[node name="String" type="Node2D"]
script = ExtResource( 1 )
speed = 350.0

[node name="Line" type="Line2D" parent="."]
points = PoolVector2Array( 0, 0, 110, 0 )
width = 2.0
default_color = Color( 1, 0.4, 0.639216, 1 )
texture_mode = 1056166868

[node name="A" type="ColorRect" parent="."]
margin_left = -3.0
margin_top = -3.0
margin_right = 3.0
margin_bottom = 3.0
rect_pivot_offset = Vector2( 3, 3 )

[node name="B" type="ColorRect" parent="."]
margin_left = 110.0
margin_top = -3.0
margin_right = 116.0
margin_bottom = 3.0
rect_pivot_offset = Vector2( 3, 3 )

[node name="Tween" type="Tween" parent="."]

[node name="Body" type="StaticBody2D" parent="."]
collision_layer = 16
collision_mask = 20
script = SubResource( 2 )

[node name="CollisionShape2D" type="CollisionShape2D" parent="Body"]
shape = SubResource( 1 )
[connection signal="tween_all_completed" from="Tween" to="." method="_on_Tween_tween_all_completed"]
