[gd_scene load_steps=2 format=2]

[ext_resource path="res://scripts/CourseClient/CourseClient.gd" type="Script" id=1]

[node name="CourseClient" type="Node"]
script = ExtResource( 1 )

[node name="HTTPRequest" type="HTTPRequest" parent="."]

[connection signal="request_completed" from="HTTPRequest" to="." method="_on_HTTPRequest_request_completed"]
