[gd_scene load_steps=6 format=2]

[ext_resource path="res://ui/basic/button_hover.tres" type="StyleBox" id=1]
[ext_resource path="res://ui/basic/button_pressed.tres" type="StyleBox" id=2]
[ext_resource path="res://ui/basic/button_focus.tres" type="StyleBox" id=3]
[ext_resource path="res://ui/basic/button_disabled.tres" type="StyleBox" id=4]
[ext_resource path="res://ui/basic/button_normal.tres" type="StyleBox" id=5]

[node name="Button" type="Button"]
anchor_right = 1.0
anchor_bottom = 1.0
margin_top = -1.0
margin_right = -492.0
margin_bottom = -743.0
custom_styles/hover = ExtResource( 1 )
custom_styles/pressed = ExtResource( 2 )
custom_styles/focus = ExtResource( 3 )
custom_styles/disabled = ExtResource( 4 )
custom_styles/normal = ExtResource( 5 )
