[gd_resource type="Theme" load_steps=3 format=2]

[sub_resource type="StyleBoxFlat" id=1]
bg_color = Color( 0.6, 0.6, 0.6, 0 )
border_width_left = 1
border_width_top = 1
border_width_right = 1
border_width_bottom = 1
corner_radius_top_left = 2
corner_radius_top_right = 2
corner_radius_bottom_right = 2
corner_radius_bottom_left = 2

[sub_resource type="StyleBoxFlat" id=2]
border_width_left = 4
border_width_top = 4
border_width_right = 4
border_width_bottom = 4
border_color = Color( 0.8, 0.8, 0.8, 0 )

[resource]
ProgressBar/styles/bg = SubResource( 1 )
ProgressBar/styles/fg = SubResource( 2 )
