[gd_resource type="DynamicFont" load_steps=2 format=2]

[ext_resource path="res://ui/Fonts/Audiowide-Regular.ttf" type="DynamicFontData" id=1]

[resource]
size = 40
outline_size = 2
extra_spacing_char = 2
font_data = ExtResource( 1 )
