[gd_resource type="Theme" load_steps=4 format=2]

[ext_resource path="res://Quantico30.tres" type="DynamicFont" id=1]
[ext_resource path="res://PlayerPanel/checked.png" type="Texture" id=2]
[ext_resource path="res://PlayerPanel/unchecked.png" type="Texture" id=3]

[resource]
Button/fonts/font = ExtResource( 1 )
CheckBox/icons/checked = ExtResource( 2 )
CheckBox/icons/unchecked = ExtResource( 3 )
Label/fonts/font = ExtResource( 1 )
