[gd_scene load_steps=3 format=2]

[ext_resource path="res://src/GameData/GameData.gd" type="Script" id=1]
[ext_resource path="res://src/Player/Player.tscn" type="PackedScene" id=2]

[node name="GameData" type="Node"]
script = ExtResource( 1 )

[node name="Banker" parent="." instance=ExtResource( 2 )]
is_bank = true
