[gd_scene load_steps=4 format=2]

[ext_resource path="res://projectiles/Bullets/Bullet.gd" type="Script" id=1]
[ext_resource path="res://ui/inventory/InventoryItem.tscn" type="PackedScene" id=2]
[ext_resource path="res://effects/Explosion.tscn" type="PackedScene" id=3]

[node name="Bullet" type="Area2D"]
z_index = 30
z_as_relative = false
collision_layer = 16
collision_mask = 3
script = ExtResource( 1 )

[node name="InventoryItem" parent="." instance=ExtResource( 2 )]
visible = false
margin_right = 34.0
margin_bottom = 34.0

[node name="Sprite" type="Sprite" parent="."]

[node name="CollisionShape2D" type="CollisionShape2D" parent="."]

[node name="lifetime" type="Timer" parent="."]

[node name="Explosion" parent="." instance=ExtResource( 3 )]
visible = false
scale = Vector2( 0.5, 0.5 )
[connection signal="body_entered" from="." to="." method="_on_Bullet_body_entered"]
[connection signal="body_exited" from="." to="." method="_on_Bullet_body_exited"]
[connection signal="timeout" from="lifetime" to="." method="_on_lifetime_timeout"]
[connection signal="animation_finished" from="Explosion" to="." method="_on_Explosion_animation_finished"]
